daily-07
…
(covid %>%
  right_join(region, by = "state") %>%
  group_by(region, date) %>%
  summarize(cases = sum(cases),
            deaths = sum(deaths)) %>%
  pivot_longer(cols = c('cases', 'deaths')) ->
  covid_region)

## `summarise()` regrouping output by 'region' (override with `.groups` argument)

## # A tibble: 1,616 x 4
## # Groups:   region [4]
##    region    date       name   value
##    <fct>     <date>     <chr>  <dbl>
##  1 Northeast 2020-02-01 cases      1
##  2 Northeast 2020-02-01 deaths     0
##  3 Northeast 2020-02-02 cases      1
##  4 Northeast 2020-02-02 deaths     0
##  5 Northeast 2020-02-03 cases      1
##  6 Northeast 2020-02-03 deaths     0
##  7 Northeast 2020-02-04 cases      1
##  8 Northeast 2020-02-04 deaths     0
##  9 Northeast 2020-02-05 cases      1
## 10 Northeast 2020-02-05 deaths     0
## #  with 1,606 more rows
…
