daily-06.R
…
library(tidyverse)
library(ggplot2)

url = 'https://raw.githubusercontent.com/nytimes/covid-19-data/master/us-counties.csv'

covid = read_csv(url)

(statedata = covid %>%
  filter(state %in% c('California', 'Florida', 'Texas', 'New York', 'Georgia', 'Illinois')) %>%
   group_by(state, date) %>%
   summarize(cases = sum(cases), na.rm = TRUE))

## `summarise()` regrouping output by 'state' (override with `.groups` argument)

## # A tibble: 1,110 x 4
## # Groups:   state [6]
##    state      date       cases na.rm
##    <chr>      <date>     <dbl> <lgl>
##  1 California 2020-01-25     1 TRUE 
##  2 California 2020-01-26     2 TRUE 
##  3 California 2020-01-27     2 TRUE 
##  4 California 2020-01-28     2 TRUE 
##  5 California 2020-01-29     2 TRUE 
##  6 California 2020-01-30     2 TRUE 
##  7 California 2020-01-31     3 TRUE 
##  8 California 2020-02-01     3 TRUE 
##  9 California 2020-02-02     6 TRUE 
## 10 California 2020-02-03     6 TRUE 
## #  with 1,100 more rows
…
